<svg width="58" height="42" viewBox="0 0 58 42" fill="none" xmlns="http://www.w3.org/2000/svg">
<g clip-path="url(#clip0_2480_11237)">
<path d="M57.6973 4.88836C57.3947 4.48931 56.9913 4.28979 56.4869 4.28979L11.8017 0C11.7008 0 11.7008 0 11.6 0C11.1965 0 10.793 0.0997625 10.4904 0.39905C10.0869 0.698337 9.88518 1.09739 9.88518 1.5962L6.55648 35.6152C6.45562 36.5131 7.1617 37.4109 8.06953 37.5107L52.7547 41.8005C53.2591 41.8005 53.6626 41.7007 54.066 41.4014C54.4695 41.1021 54.6713 40.7031 54.6713 40.2043L58 6.18527C58.1008 5.68646 57.8991 5.18765 57.6973 4.88836ZM24.0069 8.87886C25.9234 9.07838 27.3356 10.7743 27.1339 12.5701C27.033 13.4679 26.6295 14.266 25.9234 14.8646C25.3182 15.3634 24.5113 15.6627 23.7043 15.6627C23.6034 15.6627 23.5026 15.6627 23.4017 15.6627C22.4939 15.5629 21.6869 15.1639 21.0817 14.4656C20.4765 13.7672 20.1739 12.8694 20.2747 11.9715C20.4765 10.076 22.0904 8.67933 24.0069 8.87886ZM12.2052 31.3254L23.4017 20.4513L28.4452 27.6342L38.2295 18.1568L50.0313 34.9169L12.2052 31.3254Z" fill="white" fill-opacity="0.3"/>
<path d="M3.53025 35.3173L6.55634 4.19141L1.61373 4.49069C0.605035 4.59046 -0.101052 5.38856 -0.000182215 6.28642L2.52156 40.4052C2.62243 41.303 3.42938 42.1011 4.33721 42.0014L15.7355 41.2033L7.76677 40.4052C5.24504 40.2057 3.32851 37.9111 3.53025 35.3173Z" fill="white" fill-opacity="0.1"/>
</g>
<defs>
<clipPath id="clip0_2480_11237">
<rect width="58" height="42" fill="white"/>
</clipPath>
</defs>
</svg>
